<?xml version="1.0" encoding="UTF-8" standalone="no"?>
<!DOCTYPE svg PUBLIC "-//W3C//DTD SVG 1.1//EN" "http://www.w3.org/Graphics/SVG/1.1/DTD/svg11.dtd">
<svg width="100%" height="100%" viewBox="0 0 48 48" version="1.1" xmlns="http://www.w3.org/2000/svg" xmlns:xlink="http://www.w3.org/1999/xlink" xml:space="preserve" xmlns:serif="http://www.serif.com/" style="fill-rule:evenodd;clip-rule:evenodd;stroke-linejoin:round;stroke-miterlimit:2;">
    <rect x="0" y="0" width="48" height="48" style="fill:none;fill-rule:nonzero;"/>
    <path d="M30,18L18,18L18,30L30,30L30,18ZM26,26L22,26L22,22L26,22L26,26ZM42,22L42,18L38,18L38,14C38,11.79 36.21,10 34,10L30,10L30,6L26,6L26,10L22,10L22,6L18,6L18,10L14,10C11.79,10 10,11.79 10,14L10,18L6,18L6,22L10,22L10,26L6,26L6,30L10,30L10,34C10,36.21 11.79,38 14,38L18,38L18,42L22,42L22,38L26,38L26,42L30,42L30,38L34,38C36.21,38 38,36.21 38,34L38,30L42,30L42,26L38,26L38,22L42,22ZM34,34L14,34L14,14L34,14L34,34Z" style="fill-rule:nonzero;"/>
</svg>
