{
  "riftsDisclaimer": false,
  "wealthDie": false,
  "usesSanity": false,
  "scholarship": 0,
  "usesETUScholarship": false,
  "noPowerPoints": false,
  "unarmoredHero": true,
  "hideHumanRaceDisplay": false,
  "usesStrain": false,
  "strainMax": 6,
  "strainCurrent": 6,
  "playerName": "",
  "raceGenderAndProfession": "Seasoned Female Kalashtar",
  "playerCharacter": true,
  "createdDate": "2020-10-27T02:03:31.053Z",
  "updatedDate": "2020-10-27T02:03:31.053Z",
  "appVersion": "2.1.0b102603",
  "abilities": [
    {
      "name": "Charismatic",
      "description": "Through their strong presence and psychic subtleties, Kalashtar are adept at influencing others. They may Reroll immediately after failing a Persuasion roll that’s not a critical failure.",
      "note": "Racial",
      "positive": true,
      "from": "Racial",
      "takenFrom": "Eberron p12",
      "bookID": 55
    },
    {
      "name": "Dual Mind",
      "description": "Because of the guidance from the quori spirit with which they are bonded, Kalashtar can reroll opposed Psionics rolls.",
      "note": "Racial",
      "positive": true,
      "from": "Racial",
      "takenFrom": "Eberron p12",
      "bookID": 55
    },
    {
      "name": "Enemy (Major)",
      "description": "Kalashtar are constantly hunted by the Dreaming Dark and the Inspired of Reidra.",
      "note": "Racial",
      "positive": true,
      "from": "Racial",
      "takenFrom": "Eberron p12",
      "bookID": 55
    },
    {
      "name": "Mindlink",
      "description": "Kalashtar have the Arcane Background (Psionics) Edge and begin with the ​mindlink​ power as one of their known powers granted by the Edge.",
      "note": "Racial",
      "positive": true,
      "from": "Racial",
      "takenFrom": "Eberron p12",
      "bookID": 55
    },
    {
      "name": "Naturally Psionic",
      "description": "Kalashtar begin play with a d4 in the Psionics skill.",
      "note": "Racial",
      "positive": true,
      "from": "Racial",
      "takenFrom": "Eberron p12",
      "bookID": 55
    },
    {
      "name": "Outsider",
      "description": "If identified as kalashtar, they subtract 1 from their Persuasion roll as they seem to have alien dispositions with which most do not feel comfortable.",
      "note": "Racial",
      "positive": true,
      "from": "Racial",
      "takenFrom": "Eberron p12",
      "bookID": 55
    }
  ],
  "abs": [
    {
      "name": "Psion",
      "powersTotal": 3,
      "powerPointsMax": 15,
      "powerPointsCurrent": 15,
      "arcaneSkill": "Psionics",
      "takenFrom": "Eberron p48",
      "bookID": 55,
      "powerPointsName": "Power Points",
      "powers": [
        {
          "name": "Mind Link",
          "powerPoints": "1",
          "range": "Smarts",
          "takenFrom": "SWADE p164-165",
          "bookID": 55,
          "damage": "",
          "duration": "30 minutes",
          "innate": false,
          "summary": "Mental link within one mile (5 with raise).",
          "description": ""
        },
        {
          "name": "Wall Walker",
          "powerPoints": "2",
          "range": "Smarts",
          "takenFrom": "SWADE p169-170",
          "bookID": 55,
          "damage": "",
          "duration": "5",
          "innate": false,
          "summary": "Character can walk on walls at half Pace (full Pace with raise).",
          "description": ""
        },
        {
          "name": "Fear",
          "powerPoints": "2",
          "range": "Smarts",
          "takenFrom": "SWADE p161",
          "bookID": 55,
          "damage": "",
          "duration": "Instant",
          "innate": false,
          "summary": "Causes Fear check.",
          "description": ""
        },
        {
          "name": "Bolt",
          "powerPoints": "1",
          "range": "Smarts x2",
          "takenFrom": "SWADE p156",
          "bookID": 55,
          "damage": "2d6",
          "duration": "Instant",
          "innate": false,
          "summary": "2d6 ranged attack.",
          "description": ""
        }
      ]
    }
  ],
  "advances": [
    {
      "name": "Edge: Power Points",
      "number": 1,
      "description": "Edge: Power Points"
    },
    {
      "name": "Edge: New Powers (Wall Walker, Fear)",
      "number": 2,
      "description": "Edge: New Powers (Wall Walker, Fear)"
    },
    {
      "name": "Raise Attribute: Spirit",
      "number": 3,
      "description": "Raise Attribute: Spirit"
    },
    {
      "name": "Edge: Martial Warrior",
      "number": 4,
      "description": "Edge: Martial Warrior"
    },
    {
      "name": "Raise Attribute: Agility",
      "number": 5,
      "description": "Raise Attribute: Agility"
    },
    {
      "name": "Raise Skills: Healing/Fighting",
      "number": 6,
      "description": "Raise Skills: Healing/Fighting"
    },
    {
      "name": "Edge: Mentalist",
      "number": 7,
      "description": "Edge: Mentalist"
    }
  ],
  "advancesCount": 7,
  "age": "",
  "armor": [
    {
      "name": "(Unarmored)",
      "weight": 0,
      "quantity": 1,
      "armor": 0,
      "coversFace": true,
      "coversHead": true,
      "coversTorso": true,
      "coversLegs": true,
      "coversArms": true,
      "notes": "",
      "takenFrom": "",
      "bookID": 0,
      "equipped": false,
      "cost": 0,
      "costBuy": 0,
      "minStr": "",
      "equippedToughness": "5",
      "equippedStrength": "d6",
      "heavyArmor": false
    }
  ],
  "armorValue": 0,
  "attributes": [
    {
      "name": "agility",
      "label": "Agility ",
      "value": "d8",
      "mod": 0,
      "dieValue": 8
    },
    {
      "name": "smarts",
      "label": "Smarts ",
      "value": "d8",
      "mod": 0,
      "dieValue": 8
    },
    {
      "name": "spirit",
      "label": "Spirit ",
      "value": "d6",
      "mod": 0,
      "dieValue": 6
    },
    {
      "name": "strength",
      "label": "Strength ",
      "value": "d6",
      "mod": 0,
      "dieValue": 6
    },
    {
      "name": "vigor",
      "label": "Vigor ",
      "value": "d6",
      "mod": 0,
      "dieValue": 6
    }
  ],
  "background": "",
  "bennies": 3,
  "benniesMax": 3,
  "bookName": "Custom",
  "bookPublished": "",
  "bookPublisher": "",
  "charisma": 0,
  "cyberware": [],
  "description": "",
  "edges": [
    {
      "name": "Martial Artist",
      "description": "Unarmed Fighting +1, ignore Unarmed Defender rule, add d4 damage die to unarmed Fighting attacks (or increase die a step if you already have it).",
      "note": "Selected",
      "takenFrom": "SWADE p43",
      "bookID": 9
    },
    {
      "name": "Martial Warrior",
      "description": "Unarmed Fighting +2, increase damage die type a step.",
      "note": "Advance",
      "takenFrom": "SWADE p43",
      "bookID": 9
    },
    {
      "name": "Mentalist",
      "description": "+2 to opposed Psionics rolls.",
      "note": "Advance",
      "takenFrom": "SWADE p47",
      "bookID": 9
    },
    {
      "name": "New Powers (Wall Walker, Fear)",
      "description": "Your character learns a new power. Wizards must have access to an Arcane Laboratory and Clerics must complete a quest.",
      "note": "Advance",
      "takenFrom": "SWADE p47",
      "bookID": 9
    },
    {
      "name": "Power Points",
      "description": "Gain 5 additional Power Points, no more than once per Rank.",
      "note": "Advance",
      "takenFrom": "SWADE p47",
      "bookID": 9
    },
    {
      "name": "Arcane Background (Psion)",
      "description": "Provides Arcane Background: Psion",
      "note": "Arcane Background",
      "takenFrom": "EberronEberron p48",
      "bookID": 55
    }
  ],
  "fatigue": 0,
  "fatigueMax": 2,
  "gear": [],
  "gender": "Female",
  "heavyArmor": false,
  "hindrances": [
    {
      "name": "Code of Honor (major)",
      "description": "The character keeps his word and acts like a gentleman",
      "note": "Selected",
      "major": true,
      "takenFrom": "SWADE p23",
      "bookID": 9
    }
  ],
  "iconicFramework": "",
  "settingImage": "https://savaged.us/data-images/characters/20-22685-setting.png?v=1603764203",
  "image": "https://savaged.us/data-images/characters/20-22685.png?v=1603764203",
  "imageToken": "https://savaged.us/data-images/characters/20-22685-token.png?v=1603764203",
  "alliedExtras": [],
  "journal": [],
  "languages": [
    {
      "name": "Quori",
      "attribute": "smarts",
      "value": "d6",
      "dieValue": 6,
      "mod": 0
    },
    {
      "name": "Common",
      "attribute": "smarts",
      "value": "d8",
      "dieValue": 8,
      "mod": 0
    },
    {
      "name": "Draconic",
      "attribute": "smarts",
      "value": "d6",
      "dieValue": 6,
      "mod": 0
    },
    {
      "name": "Riedran",
      "attribute": "smarts",
      "value": "d6",
      "dieValue": 6,
      "mod": 0
    }
  ],
  "load": 1,
  "loadLimit": 41,
  "loadLimitBase": 41,
  "loadLimitModifier": 0,
  "name": "Mevalcri",
  "paceBase": 6,
  "paceMod": 0,
  "paceTotal": 6,
  "parryBase": 6,
  "parryMod": 0,
  "parryTotal": 6,
  "professionOrTitle": "",
  "race": "Kalashtar",
  "rank": 1,
  "rankName": "Seasoned",
  "runningDie": "d6",
  "sanity": 5,
  "savagedUsShareURL": "",
  "shields": [],
  "size": 0,
  "sizeLabel": "0 (Normal)",
  "skills": [
    {
      "name": "Athletics",
      "attribute": "agility",
      "value": "d6",
      "dieValue": 6,
      "mod": 0
    },
    {
      "name": "Common Knowledge",
      "attribute": "smarts",
      "value": "d4",
      "dieValue": 4,
      "mod": 0
    },
    {
      "name": "Fighting",
      "attribute": "agility",
      "value": "d8",
      "dieValue": 8,
      "mod": 0
    },
    {
      "name": "Gambling",
      "attribute": "smarts",
      "value": "d4",
      "dieValue": 4,
      "mod": 0
    },
    {
      "name": "Healing",
      "attribute": "smarts",
      "value": "d4",
      "dieValue": 4,
      "mod": 0
    },
    {
      "name": "Intimidation",
      "attribute": "spirit",
      "value": "d6",
      "dieValue": 6,
      "mod": 0
    },
    {
      "name": "Language (Quori)",
      "attribute": "smarts",
      "value": "d6",
      "dieValue": 6,
      "mod": 0
    },
    {
      "name": "Language (Common)",
      "attribute": "smarts",
      "value": "d8",
      "dieValue": 8,
      "mod": 0
    },
    {
      "name": "Language (Draconic)",
      "attribute": "smarts",
      "value": "d6",
      "dieValue": 6,
      "mod": 0
    },
    {
      "name": "Language (Riedran)",
      "attribute": "smarts",
      "value": "d6",
      "dieValue": 6,
      "mod": 0
    },
    {
      "name": "Notice",
      "attribute": "smarts",
      "value": "d8",
      "dieValue": 8,
      "mod": 0
    },
    {
      "name": "Persuasion",
      "attribute": "spirit",
      "value": "d4",
      "dieValue": 4,
      "mod": 0
    },
    {
      "name": "Psionics",
      "attribute": "smarts",
      "value": "d8",
      "dieValue": 8,
      "mod": 0
    },
    {
      "name": "Stealth",
      "attribute": "agility",
      "value": "d6",
      "dieValue": 6,
      "mod": 0
    }
  ],
  "swade": true,
  "toughnessBase": 5,
  "toughnessMod": 0,
  "toughnessTotal": 5,
  "toughnessTotalNoArmor": 5,
  "toughnessAsRead": "5",
  "toughnessAsReadNoHeavy": "5",
  "toughnessHeavyLabel": "",
  "usesCharisma": false,
  "usesXP": false,
  "uuid": "805ff360-e0d1-11ea-9bd7-179de11cf5ce",
  "vehicles": [],
  "wealth": 500,
  "weapons": [
    {
      "name": "Unarmed",
      "weight": 0,
      "range": "Melee",
      "damage": "Str+d6",
      "rof": 0,
      "shots": 0,
      "ap": 0,
      "notes": "+2 to Hit, Innate Attack",
      "takenFrom": " p",
      "thrown": false,
      "quantity": 1,
      "reach": 0,
      "innate": true,
      "damageDiceBase": "",
      "damageDiceBasePlus": 0,
      "equipped": true,
      "cost": 0,
      "costBuy": 0,
      "minStr": "",
      "profiles": [
        {
          "name": "",
          "damage": "Str+d6",
          "damage_original": "",
          "parry_modifier": 0,
          "range": "Melee",
          "reach": null,
          "requires_2_hands": false,
          "rof": null,
          "shots": null,
          "heavy_weapon": false,
          "melee_only": false,
          "notes": "+2 to Hit, Innate Attack",
          "damageDiceBasePlus": 0,
          "damageDiceBase": "2d6",
          "is_shield": false,
          "thrown_weapon": false,
          "usable_in_melee": false,
          "counts_as_innate": false,
          "add_strength_to_damage": true,
          "ap": 0,
          "ap_vs_rigid_armor_only": 0
        }
      ],
      "bookID": 0
    },
    {
      "name": "Cane. Monk's",
      "weight": 1,
      "range": "2/4/8",
      "damage": "Str+d6",
      "rof": 1,
      "shots": 1,
      "ap": 0,
      "notes": "+1 to Fighting rolls or Strength rolls during Disarm attempts.",
      "takenFrom": "Eberron p31",
      "thrown": true,
      "quantity": 1,
      "reach": 0,
      "innate": false,
      "damageDiceBase": "1d6",
      "damageDiceBasePlus": 0,
      "equipped": true,
      "cost": 100,
      "costBuy": 0,
      "minStr": "d6",
      "profiles": [
        {
          "name": "",
          "damage": "Str+d6",
          "damage_original": "d6",
          "parry_modifier": 0,
          "range": "2/4/8",
          "reach": null,
          "requires_2_hands": false,
          "rof": 1,
          "shots": 1,
          "heavy_weapon": false,
          "melee_only": false,
          "notes": "+1 to Fighting rolls or Strength rolls during Disarm attempts.",
          "damageDiceBasePlus": 0,
          "damageDiceBase": "2d6",
          "is_shield": false,
          "thrown_weapon": true,
          "usable_in_melee": false,
          "counts_as_innate": false,
          "add_strength_to_damage": true,
          "ap": 0,
          "ap_vs_rigid_armor_only": 0
        }
      ],
      "bookID": 55
    },
    {
      "name": "Bolt",
      "weight": 0,
      "range": "Smarts x2",
      "damage": "2d6",
      "rof": 0,
      "shots": 0,
      "ap": 0,
      "notes": "Power, Power Points: 1",
      "thrown": false,
      "quantity": 1,
      "reach": 0,
      "innate": false,
      "damageDiceBase": "2d6",
      "damageDiceBasePlus": 0,
      "equipped": true,
      "cost": 0,
      "costBuy": 0,
      "takenFrom": "SWADE p156",
      "bookID": 9,
      "minStr": "",
      "profiles": [
        {
          "name": "Bolt",
          "range": "Smarts x2",
          "damage": "2d6",
          "damage_original": "2d6",
          "rof": 0,
          "shots": 0,
          "ap": 0,
          "notes": "Power, Power Points: 1",
          "thrown_weapon": false,
          "reach": 0,
          "damageDiceBase": "2d6",
          "damageDiceBasePlus": 0,
          "equipped": false,
          "parry_modifier": 0,
          "requires_2_hands": true,
          "heavy_weapon": false,
          "melee_only": false,
          "counts_as_innate": false,
          "is_shield": false,
          "usable_in_melee": false,
          "add_strength_to_damage": false,
          "ap_vs_rigid_armor_only": 0
        }
      ]
    }
  ],
  "wildcard": true,
  "wounds": 0,
  "woundsMax": 3,
  "xp": 0,
  "otherAttacks": []
}