{
  "uuid": "0522ac52-ace8-11ea-85df-e9aefe91c85a",
  "age": "",
  "professionOrTitle": "",
  "iconicFramework": "",
  "swade": false,
  "wildcard": true,
  "heavyArmor": false,
  "gender": "Male",
  "savagedUsShareURL": "https://savaged.us/s/nathaniel-nemo",
  "size": 0,
  "benniesMax": 3,
  "bennies": 3,
  "fatigueMax": 3,
  "fatigue": 0,
  "woundsMax": 3,
  "wounds": 0,
  "name": "Nathaniel Nemo",
  "race": "Human",
  "rank": 0,
  "rankName": "Novice",
  "imageToken": "",
  "image": "https://savaged.us/data-images/characters/1-8.jpg",
  "description": "",
  "background": "Nemo is quiet about the details of his induction to the Order of the Rippers, but it's known (within the Order, of course) that he is one of the few survivors a minor noble house in Scotland. It's also common knowledge that he changed his surname Nemo, due to its meaning in Latin (\"Nobody\"), to keep the vampires which hunted and slayed his family a decade ago off his scent. \n\nHe's an electromechanical genius who, although can hold his own fighting the creatures of darkness thanks to his technological tools. He does prefer to use his brains in a situation rather than the brawn of his gadgets. He practically lives in his workshop, but is quite eager to leave to find clues or to have his revenge against the creatures which killed his family. He hopes that he may have cousins, or hopefully, one of his five siblings who also survived, but if there are any other survivors they have also gone underground to protect their identities as well.",
  "attributes": [
    {
      "name": "agility",
      "value": "d6",
      "mod": 0,
      "dieValue": 6
    },
    {
      "name": "smarts",
      "value": "d8",
      "mod": 0,
      "dieValue": 8
    },
    {
      "name": "spirit",
      "value": "d8",
      "mod": 0,
      "dieValue": 8
    },
    {
      "name": "strength",
      "value": "d6",
      "mod": 0,
      "dieValue": 6
    },
    {
      "name": "vigor",
      "value": "d6",
      "mod": 0,
      "dieValue": 6
    }
  ],
  "toughnessBase": 5,
  "toughnessTotal": 5,
  "toughnessTotalNoArmor": 5,
  "toughnessMod": 0,
  "armorValue": 0,
  "parryBase": 4,
  "parryTotal": 5,
  "parryMod": 1,
  "paceBase": 6,
  "paceTotal": 6,
  "paceMod": 0,
  "runningDie": "d6",
  "sanity": 6,
  "skills": [
    {
      "name": "Driving",
      "attribute": "agility",
      "value": "d4",
      "dieValue": 4,
      "mod": 0
    },
    {
      "name": "Fighting",
      "attribute": "agility",
      "value": "d4",
      "dieValue": 4,
      "mod": 0
    },
    {
      "name": "Knowledge(Engineering)",
      "attribute": "smarts",
      "value": "d6",
      "dieValue": 6,
      "mod": 0
    },
    {
      "name": "Notice",
      "attribute": "smarts",
      "value": "d4",
      "dieValue": 4,
      "mod": 0
    },
    {
      "name": "Persuasion",
      "attribute": "spirit",
      "value": "d6",
      "dieValue": 6,
      "mod": 0
    },
    {
      "name": "Repair",
      "attribute": "smarts",
      "value": "d8",
      "dieValue": 8,
      "mod": 0
    },
    {
      "name": "Shooting",
      "attribute": "agility",
      "value": "d6",
      "dieValue": 6,
      "mod": 0
    },
    {
      "name": "Weird Science",
      "attribute": "smarts",
      "value": "d8",
      "dieValue": 8,
      "mod": 0
    }
  ],
  "edges": [
    {
      "name": "Arcane Background (Weird Science)",
      "description": "Allows access to supernatural powers",
      "note": "Selected"
    },
    {
      "name": "New Power (Armor)",
      "description": "Character gains one new power",
      "note": "Advance"
    },
    {
      "name": "New Power (Summon Ally)",
      "description": "Character gains one new power",
      "note": "Advance"
    },
    {
      "name": "Noble (Rippers)",
      "description": "",
      "note": "Selected"
    },
    {
      "name": "Rich (Rippers)",
      "description": "3x Starting Funds, +1 status",
      "note": "Added"
    }
  ],
  "hindrances": [
    {
      "name": "Curious (major)",
      "description": "Character wants to know about everything",
      "note": "Selected",
      "major": true
    },
    {
      "name": "Quirk (minor, Athiest)",
      "description": "Character has some minor but persistent foible",
      "note": "Selected",
      "major": false
    },
    {
      "name": "Vow (minor, Avenge family slaughter by vampires)",
      "description": "A pledge to a group, deity, or religion",
      "note": "Selected",
      "major": false
    }
  ],
  "abilities": [],
  "armor": [],
  "gear": [
    {
      "name": "Leather satchel",
      "weight": 2,
      "quantity": 1,
      "contains": [
        {
          "name": "Spyglass or field glasses",
          "weight": 1,
          "quantity": 1,
          "contains": [],
          "notes": "",
          "equipped": false
        },
        {
          "name": "Clothing, fine",
          "weight": 5,
          "quantity": 1,
          "contains": [],
          "notes": "",
          "equipped": false
        },
        {
          "name": "Camera",
          "weight": 5,
          "quantity": 1,
          "contains": [],
          "notes": "",
          "equipped": false
        },
        {
          "name": "Map of London (custom)",
          "weight": 0.1,
          "quantity": 1,
          "contains": [],
          "notes": "",
          "equipped": false
        }
      ],
      "notes": "",
      "equipped": false,
      "cost": 0.1,
      "costBuy": 0.1
    },
    {
      "name": "Ruhmkorff ’s Apparatus",
      "weight": 5,
      "quantity": 1,
      "contains": [],
      "notes": "",
      "equipped": false,
      "cost": 5,
      "costBuy": 5
    }
  ],
  "weapons": [
    {
      "name": "Unarmed",
      "weight": 0,
      "range": "Melee",
      "damage": "Str",
      "rof": 0,
      "shots": 0,
      "ap": 0,
      "notes": "Innate Attack",
      "thrown": false,
      "quantity": 1,
      "reach": 0,
      "innate": true,
      "damageDiceBase": "1d6+1d12--1d4",
      "damageDiceBasePlus": 4,
      "equipped": false,
      "cost": 0,
      "costBuy": 0,
      "minStr": ""
    },
    {
      "name": "Rapier",
      "weight": 3,
      "range": "Melee",
      "damage": "Str+d4",
      "rof": 0,
      "shots": 0,
      "ap": 0,
      "notes": "+1 Parry",
      "thrown": false,
      "quantity": 1,
      "reach": 0,
      "innate": false,
      "damageDiceBase": "1d6+1d12--1d4",
      "damageDiceBasePlus": 4,
      "equipped": true,
      "cost": 2,
      "costBuy": 2,
      "minStr": ""
    }
  ],
  "cyberware": [],
  "useCharisma": true,
  "charisma": 2,
  "xp": 10,
  "usesXP": true,
  "advancesCount": 2,
  "advances": [
    {
      "name": "Edge: New Power (Armor)",
      "number": 1,
      "description": "Edge: New Power (Armor)"
    },
    {
      "name": "Edge: New Power (Summon Ally)",
      "number": 2,
      "description": "Edge: New Power (Summon Ally)"
    }
  ],
  "abs": [
    {
      "name": "Weird Science",
      "powersTotal": 1,
      "powerPointsMax": 10,
      "powerPointsCurrent": 10,
      "arcaneSkill": "Weird Science",
      "powerPointsName": "Power Points",
      "powers": [
        {
          "name": "Aetherial Arc Barrier (Armor)",
          "powerPoints": "2",
          "range": "Touch",
          "damage": "",
          "duration": "3 (1/round)",
          "innate": false,
          "summary": "",
          "description": ""
        },
        {
          "name": "Aetherial Automation (Summon Ally)",
          "powerPoints": "3+",
          "range": "Smarts",
          "damage": "",
          "duration": "3 (1/round)",
          "innate": false,
          "summary": "",
          "description": ""
        },
        {
          "name": "Etherial Electron Emitter (Bolt)",
          "powerPoints": "1 per missile",
          "range": "12/24/48",
          "damage": "2d6",
          "duration": "Instant",
          "innate": false,
          "summary": "",
          "description": ""
        }
      ]
    }
  ],
  "languages": [
    {
      "name": "Knowledge(Engineering)",
      "attribute": "smarts",
      "value": "d6",
      "dieValue": 6,
      "mod": 0
    }
  ],
  "loadLimit": 30,
  "loadLimitBase": 30,
  "load": 21.1,
  "loadLimitModifier": 0,
  "wealth": 4.68,
  "journal": [],
  "vehicles": []
}