{
  "uuid": "641f9630-9f16-11ea-8e3f-a9b0d67f9cc2",
  "swade": true,
  "wildcard": true,
  "heavyArmor": false,
  "gender": "unknown",
  "savagedUsShareURL": "https://savaged.us/s/co02ipt1",
  "size": 0,
  "benniesMax": 3,
  "bennies": 3,
  "fatigueMax": 3,
  "fatigue": 0,
  "woundsMax": 3,
  "wounds": 0,
  "name": "Pickle",
  "race": "Human",
  "rank": 0,
  "rankName": "Novice",
  "imageToken": "https://savaged.us/data-images/characters/2845-16536-token.png",
  "image": "https://savaged.us/data-images/characters/2845-16536.jpg",
  "description": "Enigmatic, super smart, quiet, never forgets a slight.",
  "background": "",
  "attributes": [
    {
      "name": "agility",
      "value": "d6",
      "mod": 0,
      "dieValue": 6
    },
    {
      "name": "smarts",
      "value": "d12",
      "mod": 0,
      "dieValue": 12
    },
    {
      "name": "spirit",
      "value": "d4",
      "mod": 0,
      "dieValue": 4
    },
    {
      "name": "strength",
      "value": "d4",
      "mod": 0,
      "dieValue": 4
    },
    {
      "name": "vigor",
      "value": "d8",
      "mod": 0,
      "dieValue": 8
    }
  ],
  "toughnessBase": 6,
  "toughnessTotal": 6,
  "toughnessTotalNoArmor": 6,
  "toughnessMod": 0,
  "armorValue": 0,
  "parryBase": 2,
  "parryTotal": 2,
  "parryMod": 0,
  "paceBase": 6,
  "paceTotal": 6,
  "paceMod": 0,
  "runningDie": "d6",
  "sanity": 4,
  "skills": [
    {
      "name": "Athletics",
      "attribute": "agility",
      "value": "d4",
      "dieValue": 4,
      "mod": 0
    },
    {
      "name": "Common Knowledge",
      "attribute": "smarts",
      "value": "d4",
      "dieValue": 4,
      "mod": 0
    },
    {
      "name": "Electronics",
      "attribute": "smarts",
      "value": "d4",
      "dieValue": 4,
      "mod": 0
    },
    {
      "name": "Hacking",
      "attribute": "smarts",
      "value": "d12",
      "dieValue": 12,
      "mod": 0
    },
    {
      "name": "Language(Native)",
      "attribute": "smarts",
      "value": "d8",
      "dieValue": 8,
      "mod": 0
    },
    {
      "name": "Notice",
      "attribute": "smarts",
      "value": "d6",
      "dieValue": 6,
      "mod": 0
    },
    {
      "name": "Persuasion",
      "attribute": "spirit",
      "value": "d4",
      "dieValue": 4,
      "mod": 0
    },
    {
      "name": "Research",
      "attribute": "smarts",
      "value": "d12",
      "dieValue": 12,
      "mod": 0
    },
    {
      "name": "Shooting",
      "attribute": "agility",
      "value": "d4",
      "dieValue": 4,
      "mod": 0
    },
    {
      "name": "Stealth",
      "attribute": "agility",
      "value": "d4",
      "dieValue": 4,
      "mod": 0
    }
  ],
  "edges": [
    {
      "name": "Deckmeister",
      "description": "During each step of a cyberspace run they draw an additional Action Card and choose which to use.",
      "note": "Selected"
    },
    {
      "name": "Streetwise",
      "description": "+2 to Common Knowledge and criminal networking.",
      "note": "Selected"
    }
  ],
  "hindrances": [
    {
      "name": "Curious (major)",
      "description": "The character wants to know about everything",
      "note": "Selected",
      "major": true
    },
    {
      "name": "Secret (major, )",
      "description": "The hero has a dark secret of some kind.",
      "note": "Selected",
      "major": true
    },
    {
      "name": "Suspicious (major)",
      "description": "The individual is paranoid. Allies subtract 2 when rolling to Support him.",
      "note": "Selected",
      "major": true
    }
  ],
  "abilities": [],
  "armor": [],
  "gear": [
    {
      "name": "Cellular Interceptor",
      "weight": 5,
      "quantity": 1,
      "contains": [],
      "notes": "",
      "equipped": false,
      "cost": 650,
      "costBuy": 0
    },
    {
      "name": "Clothing, Casual",
      "weight": 2,
      "quantity": 1,
      "contains": [],
      "notes": "",
      "equipped": false,
      "cost": 20,
      "costBuy": 0
    },
    {
      "name": "Cyberspace Deck, Full Custom",
      "weight": 10,
      "quantity": 1,
      "contains": [],
      "notes": "Power 6",
      "equipped": false,
      "cost": 20000,
      "costBuy": 0
    },
    {
      "name": "Goggles",
      "weight": 1,
      "quantity": 1,
      "contains": [],
      "notes": "",
      "equipped": false,
      "cost": 20,
      "costBuy": 0
    },
    {
      "name": "Lockpicks",
      "weight": 1,
      "quantity": 1,
      "contains": [],
      "notes": "",
      "equipped": false,
      "cost": 200,
      "costBuy": 0
    },
    {
      "name": "Utilities Package",
      "weight": 0,
      "quantity": 1,
      "contains": [],
      "notes": "",
      "equipped": false,
      "cost": 200,
      "costBuy": 0
    }
  ],
  "weapons": [
    {
      "name": "Unarmed",
      "weight": 0,
      "range": "Melee",
      "damage": "Str",
      "rof": 0,
      "shots": 0,
      "ap": 0,
      "notes": "Innate Attack",
      "thrown": false,
      "quantity": 1,
      "reach": 0,
      "innate": true,
      "damageDiceBase": "1d6+1d12--1d4",
      "damageDiceBasePlus": 4,
      "equipped": false,
      "cost": 0,
      "costBuy": 0,
      "minStr": ""
    }
  ],
  "cyberware": [
    {
      "name": "Cyberjack",
      "ranks": 1,
      "quantity": 1,
      "notes": "",
      "strain": 1,
      "cost": 3000,
      "costBuy": 0
    },
    {
      "name": "Communicator",
      "ranks": 1,
      "quantity": 1,
      "notes": "",
      "strain": 1,
      "cost": 1000,
      "costBuy": 0
    },
    {
      "name": "Skill Chip",
      "ranks": 1,
      "quantity": 1,
      "notes": "+1 step bonus to selected skill",
      "strain": 0.2,
      "cost": 3000,
      "costBuy": 0
    }
  ],
  "useCharisma": false,
  "charisma": 0,
  "xp": 0,
  "usesXP": false,
  "advancesCount": 0,
  "advances": [],
  "abs": [],
  "languages": [
    {
      "name": "Language(Native)",
      "attribute": "smarts",
      "value": "d8",
      "dieValue": 8,
      "mod": 0
    }
  ],
  "loadLimit": 20,
  "loadLimitBase": 20,
  "load": 19,
  "loadLimitModifier": 0,
  "wealth": 500,
  "journal": []
}